{
  "apiBaseUrl": "http://215.216.217.74:9090/ConnectHub/FIU/API/V1",
  
  "onboardingUrl": "http://localhost:49158/onboarding",
  
  "username": "finvudemo",

  "password": "7777",

  "fiuId": "fiu@demofinance",

  "userPostfixName": "@finvu",

  "channelId": "finsense",

  "redirectUrl": "http://localhost:49151/loan-eligibility",

  "consentDescription": "Apply for loan",

  "templateName": "ONETIME_FINVU_TESTING",

  "aaId": "cookiejar-aa@finvu.in"
}


